%YAML 1.1
%TAG !u! tag:unity3d.com,2011:
--- !u!74 &7400000
AnimationClip:
  m_ObjectHideFlags: 0
  m_CorrespondingSourceObject: {fileID: 0}
  m_PrefabInstance: {fileID: 0}
  m_PrefabAsset: {fileID: 0}
  m_Name: cleaner_idle
  serializedVersion: 6
  m_Legacy: 0
  m_Compressed: 0
  m_UseHighQualityCurve: 1
  m_RotationCurves: []
  m_CompressedRotationCurves: []
  m_EulerCurves: []
  m_PositionCurves: []
  m_ScaleCurves: []
  m_FloatCurves: []
  m_PPtrCurves:
  - curve:
    - time: 0
      value: {fileID: 21300000, guid: 4538fae8d8acc9641be01eeb44418b08, type: 3}
    - time: 0.5
      value: {fileID: 21300000, guid: 35e74bc008c8d7a41a93809363ed8e22, type: 3}
    - time: 1
      value: {fileID: 21300000, guid: 6a7296c9c0276084fa11f03e48eea9d3, type: 3}
    - time: 1.5
      value: {fileID: 21300000, guid: 2107e1d676f722b4e8827c65ae21a24e, type: 3}
    - time: 2
      value: {fileID: 21300000, guid: 3d5fcedd3ee3bd94ba72ed1c42192aa2, type: 3}
    - time: 2.5
      value: {fileID: 21300000, guid: a179b163a2a9b1a4cb89a1e3e618f728, type: 3}
    - time: 3
      value: {fileID: 21300000, guid: 16f577c4d89161b45bd783d78ece4eb0, type: 3}
    - time: 3.5
      value: {fileID: 21300000, guid: 149fc3d536146e040a17bfe2837c11ab, type: 3}
    attribute: m_Sprite
    path: 
    classID: 212
    script: {fileID: 0}
  m_SampleRate: 2
  m_WrapMode: 0
  m_Bounds:
    m_Center: {x: 0, y: 0, z: 0}
    m_Extent: {x: 0, y: 0, z: 0}
  m_ClipBindingConstant:
    genericBindings:
    - serializedVersion: 2
      path: 0
      attribute: 0
      script: {fileID: 0}
      typeID: 212
      customType: 23
      isPPtrCurve: 1
    pptrCurveMapping:
    - {fileID: 21300000, guid: 4538fae8d8acc9641be01eeb44418b08, type: 3}
    - {fileID: 21300000, guid: 35e74bc008c8d7a41a93809363ed8e22, type: 3}
    - {fileID: 21300000, guid: 6a7296c9c0276084fa11f03e48eea9d3, type: 3}
    - {fileID: 21300000, guid: 2107e1d676f722b4e8827c65ae21a24e, type: 3}
    - {fileID: 21300000, guid: 3d5fcedd3ee3bd94ba72ed1c42192aa2, type: 3}
    - {fileID: 21300000, guid: a179b163a2a9b1a4cb89a1e3e618f728, type: 3}
    - {fileID: 21300000, guid: 16f577c4d89161b45bd783d78ece4eb0, type: 3}
    - {fileID: 21300000, guid: 149fc3d536146e040a17bfe2837c11ab, type: 3}
  m_AnimationClipSettings:
    serializedVersion: 2
    m_AdditiveReferencePoseClip: {fileID: 0}
    m_AdditiveReferencePoseTime: 0
    m_StartTime: 0
    m_StopTime: 4
    m_OrientationOffsetY: 0
    m_Level: 0
    m_CycleOffset: 0
    m_HasAdditiveReferencePose: 0
    m_LoopTime: 1
    m_LoopBlend: 0
    m_LoopBlendOrientation: 0
    m_LoopBlendPositionY: 0
    m_LoopBlendPositionXZ: 0
    m_KeepOriginalOrientation: 0
    m_KeepOriginalPositionY: 1
    m_KeepOriginalPositionXZ: 0
    m_HeightFromFeet: 0
    m_Mirror: 0
  m_EditorCurves: []
  m_EulerEditorCurves: []
  m_HasGenericRootTransform: 0
  m_HasMotionFloatCurves: 0
  m_Events: []
